[
  {
    "id": 1,
    "name": "Pagos con PSE",
    "url": "#"

  },
  {
    "id": 2,
    "name": "Terminos de condiciones",
    "url": "#"

  },
  {
    "id": 3,
    "name": "Pasos y tiempo de envió",
    "url": "#"

  },
  {
    "id": 4,
    "name": "Cambios y devouciones",
    "url": "#"

  },
  {
    "id": 5,
    "name": "Tratamiento de datos personales",
    "url": "#"
  }
]