[
  {
    "id": 1,
    "image": "https://equipelco-prod.vercel.app/images/Slider/Image1.png"
  },
  {
    "id": 2,
    "image": "https://equipelco-prod.vercel.app/images/Slider/Image2.png"
  },
  {
    "id": 3,
    "image": "https://equipelco-prod.vercel.app/images/Slider/Image3.png"
  },
  {
    "id": 4,
    "image": "https://equipelco-prod.vercel.app/images/Slider/Image4.png"
  },
  {
    "id": 5,
    "image": "https://equipelco-prod.vercel.app/images/Slider/Image5.png"
  },
  {
    "id": 6,
    "image": "https://equipelco-prod.vercel.app/images/Slider/Image6.png"
  }
]